<svg width="405" height="12" viewBox="0 0 405 12" fill="none" xmlns="http://www.w3.org/2000/svg">
<path d="M405 6L395 0.226497V11.7735L405 6ZM0 6L10 11.7735V0.226497L0 6ZM396 5L9 5V7L396 7V5Z" fill="#15F1AF"/>
</svg>
