<svg width="12" height="15" viewBox="0 0 12 15" fill="none" xmlns="http://www.w3.org/2000/svg">
<path d="M8.3441 3.31218C8.3441 4.63575 7.26649 6.94322 5.94292 6.94322C4.61935 6.94322 3.54175 4.63185 3.54175 3.30437C3.56675 2.6848 3.83045 2.09893 4.27766 1.6694C4.72487 1.23987 5.3209 1 5.94097 1C6.56104 1 7.15707 1.23987 7.60428 1.6694C8.05148 2.09893 8.31519 2.6848 8.34019 3.30437L8.3441 3.31218Z" stroke="black" stroke-linecap="round" stroke-linejoin="round"/>
<path d="M1 13.6978C1 12.3868 1.52077 11.1296 2.44774 10.2026C3.37472 9.27565 4.63196 8.75488 5.9429 8.75488C7.25384 8.75488 8.51109 9.27565 9.43806 10.2026C10.365 11.1296 10.8858 12.3868 10.8858 13.6978" stroke="black" stroke-linecap="round" stroke-linejoin="round"/>
</svg>
