<svg width="63" height="56" viewBox="0 0 63 56" fill="none" xmlns="http://www.w3.org/2000/svg">
<path d="M26.857 26.2424C26.714 26.7925 26.5876 27.2575 26.4712 27.7275C25.6213 31.1726 27.3826 34.4293 30.6024 35.3677C33.814 36.3061 36.9224 34.4194 38.1431 31.0693C39.2974 27.9158 41.649 25.6058 45.0535 26.1358C48.0289 26.5941 50.2841 28.7742 50.4837 31.8859C50.66 34.636 48.769 37.1794 45.9799 37.8628C45.2481 38.0411 44.4797 38.1595 43.7263 38.1645C35.8596 38.1845 27.988 38.2311 20.1213 38.1595C15.6491 38.1195 13.0995 35.376 13.5269 31.3309C13.7913 28.8092 15.6524 26.5174 18.1405 26.3024C20.9811 26.0491 23.8517 26.2424 26.857 26.2424Z" fill="#FAB32B"/>
<path d="M31.8912 55.1867C24.6033 55.1867 17.312 55.2033 10.0258 55.1817C4.88167 55.1667 1.88468 52.3682 1.78822 47.5748C1.69674 42.7763 4.62222 39.7995 9.82288 39.7762C24.5683 39.7095 39.3155 39.7195 54.0626 39.7712C58.7477 39.7862 62.3268 43.373 62.2286 47.7114C62.1272 52.2132 58.9323 55.1583 54.016 55.1767C46.6366 55.2133 39.2622 55.1867 31.8912 55.1867ZM31.9311 41.8479C24.55 41.8479 17.179 41.8529 9.79959 41.8429C7.29489 41.8363 5.34236 42.7296 4.33117 45.158C2.56491 49.3965 5.21263 53.2283 9.97921 53.2383C24.4769 53.2633 38.9795 53.2533 53.4755 53.2433C57.7747 53.2433 60.0433 51.2665 60.0482 47.5831C60.0549 43.883 57.7747 41.8529 53.552 41.8479C46.3406 41.8379 39.1358 41.8479 31.9311 41.8479Z" fill="#FAB32B"/>
<path d="M32.766 33.831C29.8089 33.7493 28.4352 32.536 27.9711 30.3826C27.4988 28.1975 28.8493 26.2841 30.9848 25.4074C32.3169 24.8557 33.6807 24.1207 34.7135 23.1357C38.5155 19.5022 42.2659 15.8088 45.8633 11.9704C47.1206 10.6287 47.9771 8.8786 48.8553 7.22355C49.8432 5.35183 51.2519 4.45347 53.3591 4.62514C55.5561 4.80848 56.7319 6.19185 57.1145 8.17358C57.492 10.127 56.6571 12.072 54.8293 12.5054C51.6444 13.2554 49.9147 15.6338 47.8274 17.6655C44.9668 20.4473 42.1694 23.289 39.3604 26.1158C37.955 27.5308 36.4898 28.7659 36.1272 31.0559C35.8345 32.9376 34.1298 33.9127 32.766 33.831Z" fill="#FAB32B"/>
<path d="M48.1833 4.7435C47.38 6.54355 46.9525 8.13693 46.0528 9.38197C44.2516 11.8604 42.0063 13.4438 38.557 12.9387C35.9059 12.5521 33.1534 12.8821 30.4458 12.8521C29.067 12.8337 27.6567 13.2038 26.9648 11.2187C26.5374 10.0137 21.3733 10.6787 19.7135 11.582C18.5127 12.2354 16.8146 12.6837 15.5889 12.3371C14.591 12.0571 13.3087 10.4437 13.3303 9.44364C13.3603 8.08193 14.1802 6.15688 15.2629 5.55019C16.3456 4.94351 18.684 5.09184 19.5688 5.90187C21.7159 7.86193 24.0344 6.89356 26.2846 7.0869C26.564 7.1119 27.0929 6.8619 27.1295 6.67356C27.5968 3.93681 29.7257 4.79017 31.3273 4.7685C36.8156 4.70183 42.3157 4.7435 48.1833 4.7435Z" fill="#FAB32B"/>
<path d="M14.2583 4.43015C13.796 4.93683 13.2471 5.53351 12.4372 6.41021C10.152 2.20508 6.31515 3.25678 2.78928 3.05344C1.8363 2.99677 0.933209 2.15508 0.00683594 1.67507C0.938198 1.18005 1.818 0.528364 2.80591 0.251689C3.67075 0.0100156 4.67196 0.321692 5.58337 0.180021C9.4402 -0.421664 12.3008 1.02171 14.2583 4.43015Z" fill="#FAB32B"/>
<path d="M12.447 11.3054C13.1888 12.2387 13.7093 12.8871 14.2315 13.5454C12.4137 16.3772 10.0388 18.1122 6.36154 17.4955C4.96117 17.2605 3.466 17.6022 2.05565 17.3922C1.32386 17.2805 0.68189 16.5572 0 16.1072C0.698522 15.6472 1.33883 15.0255 2.10222 14.7705C2.7891 14.5388 3.61901 14.6521 4.37241 14.7138C7.51243 14.9688 10.4762 14.7905 12.447 11.3054Z" fill="#FAB32B"/>
<path d="M31.9254 43.4363C39.1202 43.4363 46.32 43.4196 53.5147 43.4413C56.831 43.4513 58.3428 44.788 58.3478 47.5898C58.3528 50.2898 56.861 51.6566 53.686 51.6616C39.1235 51.6882 24.5594 51.6766 10.0018 51.6666C8.24554 51.6666 6.29634 51.4732 5.982 49.4098C5.75249 47.9048 5.99697 46.0264 6.77033 44.7714C7.29921 43.9197 9.09541 43.5163 10.3394 43.4947C17.5292 43.378 24.7307 43.4397 31.9254 43.4363ZM6.87012 47.4314C6.92501 49.3965 8.06093 50.7182 9.67751 50.3298C10.8218 50.0532 12.1872 48.5115 12.4001 47.3431C12.5331 46.6231 10.7918 44.9597 9.69913 44.7514C8.07424 44.4397 6.90006 45.6564 6.87012 47.4314ZM51.0932 46.9064C51.0932 47.3081 51.0882 47.7114 51.0882 48.1214C52.1726 48.9131 53.3534 50.4282 54.3097 50.2965C55.414 50.1482 56.9159 48.6731 57.1703 47.5348C57.5329 45.8981 56.0261 44.5397 54.4029 44.743C53.2303 44.8897 52.1925 46.1464 51.0932 46.9064Z" fill="#FAB32B"/>
</svg>
