<svg width="23" height="23" viewBox="0 0 23 23" fill="none" xmlns="http://www.w3.org/2000/svg">
<path d="M11.3814 12.6686L15.9691 8.08098C16.4256 7.63455 16.3236 7.31979 15.6862 7.31979H13.1257L13.1262 1.74384C13.1262 0.780806 12.3458 0 11.3823 0C10.4192 0 9.63841 0.780806 9.63841 1.74384L9.63798 7.31935H7.07622C6.43883 7.31892 6.33813 7.63455 6.79459 8.08098L11.3814 12.6686Z" fill="#10FB60"/>
<path d="M21.3741 11.2347H18.7369C18.4954 11.2347 18.3009 11.4296 18.3009 11.6707V19.4914H4.69955V11.6707C4.69955 11.4296 4.50467 11.2347 4.26358 11.2347H1.6264C1.38531 11.2347 1.19043 11.4296 1.19043 11.6707V20.5922C1.19043 21.9197 2.2712 22.9996 3.59872 22.9996H19.4017C20.7297 22.9996 21.8096 21.9188 21.8096 20.5922V11.6707C21.81 11.4296 21.6156 11.2347 21.3741 11.2347Z" fill="#10FB60"/>
</svg>
