<svg width="170" height="26" viewBox="0 0 170 26" fill="none" xmlns="http://www.w3.org/2000/svg">
<path d="M89.3 12C90.8 11.9 91.1 11.5 91.1 10.4V9.8C91.1 8.5 89.9 7.4 87.6 7.4C84.1 7.4 82.3 8.8 82.1 12.4L89.3 12ZM142.9 17.3C139.7 17.7 139 18.3 139 19.7V20C139 21.4 139.9 22.2 142.6 22.2C146 22.2 147.4 21.3 147.4 19.6V16.8L142.9 17.3ZM44.8 7.5C41.4 7.5 39 9.1 39 14.9C39 20.6 40.3 22 43.8 22C47.2 22 49.2 20.5 49.2 14.9C49.2 9.1 48.4 7.5 44.8 7.5ZM126 0.0999985L125.8 4.3H132.7V7.5H125.7V19.3C125.7 21.8 127.4 22 128.9 22C130.1 22 131.3 21.8 132.9 21.1V24.5C131 25.4 129.2 25.6 127.7 25.6C124.7 25.6 121.6 24.7 121.6 20.3V7.5H118.9V5.1L121.1 4.3C121.7 4.1 121.8 3.9 122 3.4L122.9 0L126 0.0999985ZM168.9 9C168.3 8.7 165.7 7.5 162.7 7.5C160 7.5 158.8 8.4 158.8 9.6V10C158.8 11.1 159.5 11.8 162.2 12.5L165.2 13.3C168.9 14.3 170 15.6 170 18.7V19.5C170 23.4 166.5 25.5 161.2 25.5C157.5 25.5 155 24.4 154.3 23.9V19.9C155 20.4 157.3 22 161.2 22C164.2 22 165.8 21.1 165.8 19.6V19.2C165.8 17.9 165.1 17.4 163.1 16.9L159.5 15.9C156.6 15.1 154.6 13.8 154.6 10.5V9.7C154.6 6.8 156.7 4 162.8 4C165 4 167.2 4.6 168.8 5.2L168.9 9ZM56 4.3H60.6L62.7 19.7C62.9 21.3 63.4 21.9 65 21.9C69.1 21.9 70.6 15.6 70.6 11C70.6 7.9 70 5.2 69.7 4.3H74.2C74.2 4.3 75 6.7 75 10.2C75 17.8 71.8 25.6 64 25.6C60.3 25.6 58.8 24 58.4 21.2L56 4.3ZM115.9 25.3H111.7V10.5C111.7 8.4 110.7 7.5 107.9 7.5C104 7.5 102.4 8.3 102.4 14.1V25.2H98.2V14.1C98.2 11.4 98.4 8.6 100.2 6.6C102 4.6 104.7 4 108 4C113.7 4 116 6 116 10.4V25.3H115.9ZM135.8 6.8C137.5 5.3 140.5 4 143.8 4C149.7 4 151.6 6.2 151.6 10.8V19.5C151.6 23.6 147.9 25.7 142.6 25.7C136.8 25.7 134.8 23.8 134.8 20.3V19.9C134.8 16.4 137.1 15.1 140.5 14.7L147.4 13.8V10.8C147.4 8.7 146.8 7.6 143.5 7.6C140.2 7.6 137.4 9.4 135.8 11V6.8ZM94.2 24.1C92.1 25.1 90.1 25.7 86.7 25.7C80.3 25.7 77.5 22.5 77.5 17.4V14.7C77.5 7.9 80.9 4 87.9 4C93 4 95.2 6.6 95.2 9.5V10.3C95.2 13.9 93.8 14.8 89.4 15.1L82 15.5V17.7C82 20.6 84.3 22 87.6 22C90.4 22 92.5 21.2 94.2 20.2V24.1V24.1ZM31.1 25.3H26.9V10.5C26.9 8.4 26.2 7.5 23.4 7.5C19.3 7.5 17.7 8.3 17.6 13.7V25.2H13.4V14.1V13.9V10.6C13.4 8.5 12.7 7.6 9.9 7.6C5.8 7.6 4.1 8.4 4.1 14.2V25.3H0V14.1C0 11.4 0.2 8.6 2 6.6C3.8 4.6 6.5 4 9.8 4C13.3 4 15.5 4.7 16.6 6.3C17.8 5 19.8 4 23.2 4C28.9 4 31.1 6 31.1 10.4V25.3ZM43.8 25.7C36.8 25.7 34.4 22.7 34.4 15.7V14.1C34.4 7.5 38.5 4 44.8 4C51.4 4 53.8 7.1 53.8 14.1V15.7C53.8 22.2 50.4 25.7 43.8 25.7Z" fill="#16C1F3"/>
</svg>
